<?xml version="1.0" encoding="UTF-8"?>
<testsuite xmlns:xsi="http://www.w3.org/2001/XMLSchema-instance" xsi:noNamespaceSchemaLocation="https://maven.apache.org/surefire/maven-surefire-plugin/xsd/surefire-test-report-3.0.xsd" version="3.0" name="TestSuite" time="9.103" tests="9" errors="0" skipped="0" failures="0">
  <properties>
    <property name="java.specification.version" value="15"/>
    <property name="sun.cpu.isalist" value="amd64"/>
    <property name="sun.jnu.encoding" value="Cp1252"/>
    <property name="java.class.path" value="C:\Users\aavadhoo\OneDrive - Capgemini\Desktop\RestAssured\SimplilearnRestAssured\target\test-classes;C:\Users\aavadhoo\OneDrive - Capgemini\Desktop\RestAssured\SimplilearnRestAssured\target\classes;C:\Users\aavadhoo\.m2\repository\org\testng\testng\7.6.1\testng-7.6.1.jar;C:\Users\aavadhoo\.m2\repository\com\google\code\findbugs\jsr305\3.0.2\jsr305-3.0.2.jar;C:\Users\aavadhoo\.m2\repository\org\slf4j\slf4j-api\1.7.36\slf4j-api-1.7.36.jar;C:\Users\aavadhoo\.m2\repository\com\beust\jcommander\1.82\jcommander-1.82.jar;C:\Users\aavadhoo\.m2\repository\org\webjars\jquery\3.6.0\jquery-3.6.0.jar;C:\Users\aavadhoo\.m2\repository\io\rest-assured\rest-assured\5.1.1\rest-assured-5.1.1.jar;C:\Users\aavadhoo\.m2\repository\org\apache\groovy\groovy\4.0.1\groovy-4.0.1.jar;C:\Users\aavadhoo\.m2\repository\org\apache\groovy\groovy-xml\4.0.1\groovy-xml-4.0.1.jar;C:\Users\aavadhoo\.m2\repository\org\apache\httpcomponents\httpclient\4.5.13\httpclient-4.5.13.jar;C:\Users\aavadhoo\.m2\repository\org\apache\httpcomponents\httpcore\4.4.13\httpcore-4.4.13.jar;C:\Users\aavadhoo\.m2\repository\commons-logging\commons-logging\1.2\commons-logging-1.2.jar;C:\Users\aavadhoo\.m2\repository\commons-codec\commons-codec\1.11\commons-codec-1.11.jar;C:\Users\aavadhoo\.m2\repository\org\apache\httpcomponents\httpmime\4.5.13\httpmime-4.5.13.jar;C:\Users\aavadhoo\.m2\repository\org\hamcrest\hamcrest\2.1\hamcrest-2.1.jar;C:\Users\aavadhoo\.m2\repository\org\ccil\cowan\tagsoup\tagsoup\1.2.1\tagsoup-1.2.1.jar;C:\Users\aavadhoo\.m2\repository\io\rest-assured\json-path\5.1.1\json-path-5.1.1.jar;C:\Users\aavadhoo\.m2\repository\org\apache\groovy\groovy-json\4.0.1\groovy-json-4.0.1.jar;C:\Users\aavadhoo\.m2\repository\io\rest-assured\rest-assured-common\5.1.1\rest-assured-common-5.1.1.jar;C:\Users\aavadhoo\.m2\repository\io\rest-assured\xml-path\5.1.1\xml-path-5.1.1.jar;C:\Users\aavadhoo\.m2\repository\org\apache\commons\commons-lang3\3.11\commons-lang3-3.11.jar;C:\Users\aavadhoo\.m2\repository\com\google\code\gson\gson\2.9.1\gson-2.9.1.jar;C:\Users\aavadhoo\.m2\repository\io\rest-assured\json-schema-validator\4.3.1\json-schema-validator-4.3.1.jar;C:\Users\aavadhoo\.m2\repository\com\github\java-json-tools\json-schema-validator\2.2.10\json-schema-validator-2.2.10.jar;C:\Users\aavadhoo\.m2\repository\com\github\java-json-tools\json-schema-core\1.2.10\json-schema-core-1.2.10.jar;C:\Users\aavadhoo\.m2\repository\com\github\java-json-tools\jackson-coreutils\1.9\jackson-coreutils-1.9.jar;C:\Users\aavadhoo\.m2\repository\com\google\guava\guava\16.0.1\guava-16.0.1.jar;C:\Users\aavadhoo\.m2\repository\com\github\fge\msg-simple\1.1\msg-simple-1.1.jar;C:\Users\aavadhoo\.m2\repository\com\github\fge\btf\1.2\btf-1.2.jar;C:\Users\aavadhoo\.m2\repository\com\github\fge\uri-template\0.9\uri-template-0.9.jar;C:\Users\aavadhoo\.m2\repository\org\mozilla\rhino\1.7.7.1\rhino-1.7.7.1.jar;C:\Users\aavadhoo\.m2\repository\javax\mail\mailapi\1.4.3\mailapi-1.4.3.jar;C:\Users\aavadhoo\.m2\repository\javax\activation\activation\1.1\activation-1.1.jar;C:\Users\aavadhoo\.m2\repository\joda-time\joda-time\2.9.7\joda-time-2.9.7.jar;C:\Users\aavadhoo\.m2\repository\com\googlecode\libphonenumber\libphonenumber\8.0.0\libphonenumber-8.0.0.jar;C:\Users\aavadhoo\.m2\repository\net\sf\jopt-simple\jopt-simple\5.0.3\jopt-simple-5.0.3.jar;C:\Users\aavadhoo\.m2\repository\log4j\log4j\1.2.17\log4j-1.2.17.jar;C:\Users\aavadhoo\.m2\repository\com\fasterxml\jackson\core\jackson-databind\2.13.4\jackson-databind-2.13.4.jar;C:\Users\aavadhoo\.m2\repository\com\fasterxml\jackson\core\jackson-annotations\2.13.4\jackson-annotations-2.13.4.jar;C:\Users\aavadhoo\.m2\repository\com\fasterxml\jackson\core\jackson-core\2.13.4\jackson-core-2.13.4.jar;C:\Users\aavadhoo\.m2\repository\commons-io\commons-io\2.11.0\commons-io-2.11.0.jar;C:\Users\aavadhoo\.m2\repository\com\googlecode\json-simple\json-simple\1.1\json-simple-1.1.jar;C:\Users\aavadhoo\.m2\repository\io\qameta\allure\allure-rest-assured\2.14.0\allure-rest-assured-2.14.0.jar;C:\Users\aavadhoo\.m2\repository\io\qameta\allure\allure-attachments\2.14.0\allure-attachments-2.14.0.jar;C:\Users\aavadhoo\.m2\repository\io\qameta\allure\allure-java-commons\2.14.0\allure-java-commons-2.14.0.jar;C:\Users\aavadhoo\.m2\repository\io\qameta\allure\allure-model\2.14.0\allure-model-2.14.0.jar;C:\Users\aavadhoo\.m2\repository\org\apache\tika\tika-core\1.26\tika-core-1.26.jar;C:\Users\aavadhoo\.m2\repository\javax\xml\bind\jaxb-api\2.3.1\jaxb-api-2.3.1.jar;C:\Users\aavadhoo\.m2\repository\javax\activation\javax.activation-api\1.2.0\javax.activation-api-1.2.0.jar;C:\Users\aavadhoo\.m2\repository\org\jooq\joor-java-8\0.9.14\joor-java-8-0.9.14.jar;C:\Users\aavadhoo\.m2\repository\org\freemarker\freemarker\2.3.31\freemarker-2.3.31.jar;C:\Users\aavadhoo\.m2\repository\org\projectlombok\lombok\1.18.22\lombok-1.18.22.jar;C:\Users\aavadhoo\.m2\repository\org\json\json\20210307\json-20210307.jar;"/>
    <property name="java.vm.vendor" value="AdoptOpenJDK"/>
    <property name="sun.arch.data.model" value="64"/>
    <property name="user.variant" value=""/>
    <property name="java.vendor.url" value="https://adoptopenjdk.net/"/>
    <property name="user.timezone" value="Asia/Calcutta"/>
    <property name="os.name" value="Windows 10"/>
    <property name="java.vm.specification.version" value="15"/>
    <property name="sun.java.launcher" value="SUN_STANDARD"/>
    <property name="user.country" value="IN"/>
    <property name="sun.boot.library.path" value="C:\Program Files\AdoptOpenJDK\jdk-15.0.0.36-hotspot\bin"/>
    <property name="sun.java.command" value="C:\Users\aavadhoo\AppData\Local\Temp\surefire5440958528990504184\surefirebooter18160192494468351052.jar C:\Users\aavadhoo\AppData\Local\Temp\surefire5440958528990504184 2022-10-16T22-33-29_181-jvmRun1 surefire4578689112216502849tmp surefire_02934217754136566982tmp"/>
    <property name="jdk.debug" value="release"/>
    <property name="surefire.test.class.path" value="C:\Users\aavadhoo\OneDrive - Capgemini\Desktop\RestAssured\SimplilearnRestAssured\target\test-classes;C:\Users\aavadhoo\OneDrive - Capgemini\Desktop\RestAssured\SimplilearnRestAssured\target\classes;C:\Users\aavadhoo\.m2\repository\org\testng\testng\7.6.1\testng-7.6.1.jar;C:\Users\aavadhoo\.m2\repository\com\google\code\findbugs\jsr305\3.0.2\jsr305-3.0.2.jar;C:\Users\aavadhoo\.m2\repository\org\slf4j\slf4j-api\1.7.36\slf4j-api-1.7.36.jar;C:\Users\aavadhoo\.m2\repository\com\beust\jcommander\1.82\jcommander-1.82.jar;C:\Users\aavadhoo\.m2\repository\org\webjars\jquery\3.6.0\jquery-3.6.0.jar;C:\Users\aavadhoo\.m2\repository\io\rest-assured\rest-assured\5.1.1\rest-assured-5.1.1.jar;C:\Users\aavadhoo\.m2\repository\org\apache\groovy\groovy\4.0.1\groovy-4.0.1.jar;C:\Users\aavadhoo\.m2\repository\org\apache\groovy\groovy-xml\4.0.1\groovy-xml-4.0.1.jar;C:\Users\aavadhoo\.m2\repository\org\apache\httpcomponents\httpclient\4.5.13\httpclient-4.5.13.jar;C:\Users\aavadhoo\.m2\repository\org\apache\httpcomponents\httpcore\4.4.13\httpcore-4.4.13.jar;C:\Users\aavadhoo\.m2\repository\commons-logging\commons-logging\1.2\commons-logging-1.2.jar;C:\Users\aavadhoo\.m2\repository\commons-codec\commons-codec\1.11\commons-codec-1.11.jar;C:\Users\aavadhoo\.m2\repository\org\apache\httpcomponents\httpmime\4.5.13\httpmime-4.5.13.jar;C:\Users\aavadhoo\.m2\repository\org\hamcrest\hamcrest\2.1\hamcrest-2.1.jar;C:\Users\aavadhoo\.m2\repository\org\ccil\cowan\tagsoup\tagsoup\1.2.1\tagsoup-1.2.1.jar;C:\Users\aavadhoo\.m2\repository\io\rest-assured\json-path\5.1.1\json-path-5.1.1.jar;C:\Users\aavadhoo\.m2\repository\org\apache\groovy\groovy-json\4.0.1\groovy-json-4.0.1.jar;C:\Users\aavadhoo\.m2\repository\io\rest-assured\rest-assured-common\5.1.1\rest-assured-common-5.1.1.jar;C:\Users\aavadhoo\.m2\repository\io\rest-assured\xml-path\5.1.1\xml-path-5.1.1.jar;C:\Users\aavadhoo\.m2\repository\org\apache\commons\commons-lang3\3.11\commons-lang3-3.11.jar;C:\Users\aavadhoo\.m2\repository\com\google\code\gson\gson\2.9.1\gson-2.9.1.jar;C:\Users\aavadhoo\.m2\repository\io\rest-assured\json-schema-validator\4.3.1\json-schema-validator-4.3.1.jar;C:\Users\aavadhoo\.m2\repository\com\github\java-json-tools\json-schema-validator\2.2.10\json-schema-validator-2.2.10.jar;C:\Users\aavadhoo\.m2\repository\com\github\java-json-tools\json-schema-core\1.2.10\json-schema-core-1.2.10.jar;C:\Users\aavadhoo\.m2\repository\com\github\java-json-tools\jackson-coreutils\1.9\jackson-coreutils-1.9.jar;C:\Users\aavadhoo\.m2\repository\com\google\guava\guava\16.0.1\guava-16.0.1.jar;C:\Users\aavadhoo\.m2\repository\com\github\fge\msg-simple\1.1\msg-simple-1.1.jar;C:\Users\aavadhoo\.m2\repository\com\github\fge\btf\1.2\btf-1.2.jar;C:\Users\aavadhoo\.m2\repository\com\github\fge\uri-template\0.9\uri-template-0.9.jar;C:\Users\aavadhoo\.m2\repository\org\mozilla\rhino\1.7.7.1\rhino-1.7.7.1.jar;C:\Users\aavadhoo\.m2\repository\javax\mail\mailapi\1.4.3\mailapi-1.4.3.jar;C:\Users\aavadhoo\.m2\repository\javax\activation\activation\1.1\activation-1.1.jar;C:\Users\aavadhoo\.m2\repository\joda-time\joda-time\2.9.7\joda-time-2.9.7.jar;C:\Users\aavadhoo\.m2\repository\com\googlecode\libphonenumber\libphonenumber\8.0.0\libphonenumber-8.0.0.jar;C:\Users\aavadhoo\.m2\repository\net\sf\jopt-simple\jopt-simple\5.0.3\jopt-simple-5.0.3.jar;C:\Users\aavadhoo\.m2\repository\log4j\log4j\1.2.17\log4j-1.2.17.jar;C:\Users\aavadhoo\.m2\repository\com\fasterxml\jackson\core\jackson-databind\2.13.4\jackson-databind-2.13.4.jar;C:\Users\aavadhoo\.m2\repository\com\fasterxml\jackson\core\jackson-annotations\2.13.4\jackson-annotations-2.13.4.jar;C:\Users\aavadhoo\.m2\repository\com\fasterxml\jackson\core\jackson-core\2.13.4\jackson-core-2.13.4.jar;C:\Users\aavadhoo\.m2\repository\commons-io\commons-io\2.11.0\commons-io-2.11.0.jar;C:\Users\aavadhoo\.m2\repository\com\googlecode\json-simple\json-simple\1.1\json-simple-1.1.jar;C:\Users\aavadhoo\.m2\repository\io\qameta\allure\allure-rest-assured\2.14.0\allure-rest-assured-2.14.0.jar;C:\Users\aavadhoo\.m2\repository\io\qameta\allure\allure-attachments\2.14.0\allure-attachments-2.14.0.jar;C:\Users\aavadhoo\.m2\repository\io\qameta\allure\allure-java-commons\2.14.0\allure-java-commons-2.14.0.jar;C:\Users\aavadhoo\.m2\repository\io\qameta\allure\allure-model\2.14.0\allure-model-2.14.0.jar;C:\Users\aavadhoo\.m2\repository\org\apache\tika\tika-core\1.26\tika-core-1.26.jar;C:\Users\aavadhoo\.m2\repository\javax\xml\bind\jaxb-api\2.3.1\jaxb-api-2.3.1.jar;C:\Users\aavadhoo\.m2\repository\javax\activation\javax.activation-api\1.2.0\javax.activation-api-1.2.0.jar;C:\Users\aavadhoo\.m2\repository\org\jooq\joor-java-8\0.9.14\joor-java-8-0.9.14.jar;C:\Users\aavadhoo\.m2\repository\org\freemarker\freemarker\2.3.31\freemarker-2.3.31.jar;C:\Users\aavadhoo\.m2\repository\org\projectlombok\lombok\1.18.22\lombok-1.18.22.jar;C:\Users\aavadhoo\.m2\repository\org\json\json\20210307\json-20210307.jar;"/>
    <property name="sun.cpu.endian" value="little"/>
    <property name="user.home" value="C:\Users\aavadhoo"/>
    <property name="user.language" value="en"/>
    <property name="java.specification.vendor" value="Oracle Corporation"/>
    <property name="java.version.date" value="2020-09-15"/>
    <property name="java.home" value="C:\Program Files\AdoptOpenJDK\jdk-15.0.0.36-hotspot"/>
    <property name="file.separator" value="\"/>
    <property name="basedir" value="C:\Users\aavadhoo\OneDrive - Capgemini\Desktop\RestAssured\SimplilearnRestAssured"/>
    <property name="java.vm.compressedOopsMode" value="Zero based"/>
    <property name="line.separator" value="&#10;"/>
    <property name="java.vm.specification.vendor" value="Oracle Corporation"/>
    <property name="java.specification.name" value="Java Platform API Specification"/>
    <property name="surefire.real.class.path" value="C:\Users\aavadhoo\AppData\Local\Temp\surefire5440958528990504184\surefirebooter18160192494468351052.jar"/>
    <property name="user.script" value=""/>
    <property name="sun.management.compiler" value="HotSpot 64-Bit Tiered Compilers"/>
    <property name="java.runtime.version" value="15+36"/>
    <property name="user.name" value="aavadhoo"/>
    <property name="path.separator" value=";"/>
    <property name="os.version" value="10.0"/>
    <property name="java.runtime.name" value="OpenJDK Runtime Environment"/>
    <property name="file.encoding" value="Cp1252"/>
    <property name="java.vm.name" value="OpenJDK 64-Bit Server VM"/>
    <property name="java.vendor.version" value="AdoptOpenJDK"/>
    <property name="localRepository" value="C:\Users\aavadhoo\.m2\repository"/>
    <property name="java.vendor.url.bug" value="https://github.com/AdoptOpenJDK/openjdk-support/issues"/>
    <property name="java.io.tmpdir" value="C:\Users\aavadhoo\AppData\Local\Temp\"/>
    <property name="java.version" value="15"/>
    <property name="user.dir" value="C:\Users\aavadhoo\OneDrive - Capgemini\Desktop\RestAssured\SimplilearnRestAssured"/>
    <property name="os.arch" value="amd64"/>
    <property name="java.vm.specification.name" value="Java Virtual Machine Specification"/>
    <property name="sun.os.patch.level" value=""/>
    <property name="java.library.path" value="C:\Program Files\AdoptOpenJDK\jdk-15.0.0.36-hotspot\bin;C:\WINDOWS\Sun\Java\bin;C:\WINDOWS\system32;C:\WINDOWS;C:\oraclexe\app\oracle\product\11.2.0\server\bin;C:\Program Files\AdoptOpenJDK\jdk-15.0.0.36-hotspot\bin;C:\WINDOWS\system32;C:\WINDOWS;C:\WINDOWS\System32\Wbem;C:\WINDOWS\System32\WindowsPowerShell\v1.0\;C:\WINDOWS\System32\OpenSSH\;C:\Users\aavadhoo\OneDrive - Capgemini\Desktop\TakesScreenshot\apache-maven-3.8.6\bin;C:\Program Files\nodejs\;C:\Users\aavadhoo\AppData\Roaming\npm;C:\Users\aavadhoo\AppData\Local\Android\Sdk\platform-tools;C:\Users\aavadhoo\AppData\Local\Android\Sdk\tools;C:\Users\aavadhoo\AppData\Local\Android\Sdk\tools\bin;C:\Users\aavadhoo\OneDrive - Capgemini\Desktop\JUnit\apache-maven-3.8.6\bin;C:\Users\aavadhoo\AppData\Local\Microsoft\WindowsApps;C:\Users\aavadhoo\AppData\Local\Programs\Microsoft VS Code\bin;C:\Users\aavadhoo\AppData\Local\Programs\Git\cmd;C:\Users\aavadhoo\OneDrive - Capgemini\Desktop\selenium\apache-maven-3.8.6\bin;C:\Users\aavadhoo\AppData\Roaming\npm\node_modules\newman\bin;."/>
    <property name="java.vm.info" value="mixed mode, sharing"/>
    <property name="java.vendor" value="AdoptOpenJDK"/>
    <property name="java.vm.version" value="15+36"/>
    <property name="sun.io.unicode.encoding" value="UnicodeLittle"/>
    <property name="java.class.version" value="59.0"/>
  </properties>
  <testcase name="CreateuserRequestc" classname="com.reqres.testcases.RegresAPI" time="2.036">
    <system-err><![CDATA[SLF4J: Failed to load class "org.slf4j.impl.StaticLoggerBinder".
SLF4J: Defaulting to no-operation (NOP) logger implementation
SLF4J: See http://www.slf4j.org/codes.html#StaticLoggerBinder for further details.
log4j:WARN No appenders could be found for logger (org.apache.http.impl.conn.BasicClientConnectionManager).
log4j:WARN Please initialize the log4j system properly.
log4j:WARN See http://logging.apache.org/log4j/1.2/faq.html#noconfig for more info.
]]></system-err>
  </testcase>
  <testcase name="DeleteSingleUserRequest" classname="com.reqres.testcases.RegresAPI" time="0.446">
    <system-out><![CDATA[Status Code = 204
Status Line = HTTP/1.1 204 No Content
Response Body = 
]]></system-out>
  </testcase>
  <testcase name="DeleteSingleUserRequestc" classname="com.reqres.testcases.RegresAPI" time="1.417"/>
  <testcase name="GetListofusers" classname="com.reqres.testcases.RegresAPI" time="1.402">
    <system-out><![CDATA[ArrayCount = 6
Email[0] -michael.lawson@reqres.in
FirstName[0] -Michael
LastName[0] -Lawson
Avatar[0] -https://reqres.in/img/faces/7-image.jpg
Id[0] -7
Email[1] -lindsay.ferguson@reqres.in
FirstName[1] -Lindsay
LastName[1] -Ferguson
Avatar[1] -https://reqres.in/img/faces/8-image.jpg
Id[1] -8
Email[2] -tobias.funke@reqres.in
FirstName[2] -Tobias
LastName[2] -Funke
Avatar[2] -https://reqres.in/img/faces/9-image.jpg
Id[2] -9
Email[3] -byron.fields@reqres.in
FirstName[3] -Byron
LastName[3] -Fields
Avatar[3] -https://reqres.in/img/faces/10-image.jpg
Id[3] -10
Email[4] -george.edwards@reqres.in
FirstName[4] -George
LastName[4] -Edwards
Avatar[4] -https://reqres.in/img/faces/11-image.jpg
Id[4] -11
Email[5] -rachel.howell@reqres.in
FirstName[5] -Rachel
LastName[5] -Howell
Avatar[5] -https://reqres.in/img/faces/12-image.jpg
Id[5] -12
Date Sun, 16 Oct 2022 17:03:35 GMT
Content-Type application/json; charset=utf-8
Transfer-Encoding chunked
Connection keep-alive
X-Powered-By Express
Access-Control-Allow-Origin *
Etag W/"406-ut0vzoCuidvyMf8arZpMpJ6ZRDw"
Via 1.1 vegur
Cache-Control max-age=14400
CF-Cache-Status HIT
Age 6936
Report-To {"endpoints":[{"url":"https:\/\/a.nel.cloudflare.com\/report\/v3?s=aXS2pOA30Z7RzDcU76tbjXv9zDrlDIIESYSuGLRN4RgADb42w9TRyLe49yeXrCJsSZwjsdc6nte2%2Fd1OXwc9XPqDC60MKxuBX8xbILlV%2FTGOaEPGPfiL3Ylu2A%3D%3D"}],"group":"cf-nel","max_age":604800}
NEL {"success_fraction":0,"report_to":"cf-nel","max_age":604800}
Vary Accept-Encoding
Server cloudflare
CF-RAY 75b25e683acb7941-AMD
Content-Encoding gzip
Email = michael.lawson@reqres.in
firstname = Michael
lastname = Lawson
Avatar = https://reqres.in/img/faces/7-image.jpg
Id = 7
Status Code = 200
Status Line = HTTP/1.1 200 OK
Response Body = {"page":2,"per_page":6,"total":12,"total_pages":2,"data":[{"id":7,"email":"michael.lawson@reqres.in","first_name":"Michael","last_name":"Lawson","avatar":"https://reqres.in/img/faces/7-image.jpg"},{"id":8,"email":"lindsay.ferguson@reqres.in","first_name":"Lindsay","last_name":"Ferguson","avatar":"https://reqres.in/img/faces/8-image.jpg"},{"id":9,"email":"tobias.funke@reqres.in","first_name":"Tobias","last_name":"Funke","avatar":"https://reqres.in/img/faces/9-image.jpg"},{"id":10,"email":"byron.fields@reqres.in","first_name":"Byron","last_name":"Fields","avatar":"https://reqres.in/img/faces/10-image.jpg"},{"id":11,"email":"george.edwards@reqres.in","first_name":"George","last_name":"Edwards","avatar":"https://reqres.in/img/faces/11-image.jpg"},{"id":12,"email":"rachel.howell@reqres.in","first_name":"Rachel","last_name":"Howell","avatar":"https://reqres.in/img/faces/12-image.jpg"}],"support":{"url":"https://reqres.in/#support-heading","text":"To keep ReqRes free, contributions towards server costs are appreciated!"}}
]]></system-out>
  </testcase>
  <testcase name="GetListofusersc" classname="com.reqres.testcases.RegresAPI" time="0.117"/>
  <testcase name="GetSingleUserRequest" classname="com.reqres.testcases.RegresAPI" time="0.214">
    <system-out><![CDATA[Email = janet.weaver@reqres.in
firstname = Janet
lastname = Weaver
Avatar = https://reqres.in/img/faces/2-image.jpg
Id = 2
Status Code = 200
Status Line = HTTP/1.1 200 OK
Response Body = {"data":{"id":2,"email":"janet.weaver@reqres.in","first_name":"Janet","last_name":"Weaver","avatar":"https://reqres.in/img/faces/2-image.jpg"},"support":{"url":"https://reqres.in/#support-heading","text":"To keep ReqRes free, contributions towards server costs are appreciated!"}}
]]></system-out>
  </testcase>
  <testcase name="GetSingleUserRequestc" classname="com.reqres.testcases.RegresAPI" time="0.194"/>
  <testcase name="UpdateuserRequest" classname="com.reqres.testcases.RegresAPI" time="0.439">
    <system-out><![CDATA[Response Status Code : 200
Response Status Line : HTTP/1.1 200 OK
Response Body : {"updatedAt":"2022-10-16T17:03:37.842Z"}
]]></system-out>
  </testcase>
  <testcase name="UpdateuserRequestc" classname="com.reqres.testcases.RegresAPI" time="1.436"/>
</testsuite>